^C:\USERS\500160437\SOURCE\REPOS\VLZ.CLASSESDEMO\VLZ.CLASSESDEMO\MAIN.CPP
C:\USERS\500160437\SOURCE\REPOS\VLZ.CLASSESDEMO\VLZ.CLASSESDEMO\DEBUG\VC141.PDB
C:\USERS\500160437\SOURCE\REPOS\VLZ.CLASSESDEMO\VLZ.CLASSESDEMO\DEBUG\VC141.IDB
C:\USERS\500160437\SOURCE\REPOS\VLZ.CLASSESDEMO\VLZ.CLASSESDEMO\DEBUG\MAIN.OBJ
^C:\USERS\500160437\SOURCE\REPOS\CLASSESDEMO\VLZ.CLASSESDEMO\ANIMAL.CPP|C:\USERS\500160437\SOURCE\REPOS\CLASSESDEMO\VLZ.CLASSESDEMO\MAIN.CPP
C:\USERS\500160437\SOURCE\REPOS\CLASSESDEMO\VLZ.CLASSESDEMO\DEBUG\VC141.PDB
C:\USERS\500160437\SOURCE\REPOS\CLASSESDEMO\VLZ.CLASSESDEMO\DEBUG\VC141.IDB
C:\USERS\500160437\SOURCE\REPOS\CLASSESDEMO\VLZ.CLASSESDEMO\DEBUG\MAIN.OBJ
C:\USERS\500160437\SOURCE\REPOS\CLASSESDEMO\VLZ.CLASSESDEMO\DEBUG\ANIMAL.OBJ
^C:\USERS\500160437\SOURCE\REPOS\CLASSESDEMO\VLZ.CLASSESDEMO\ANIMAL.CPP
C:\USERS\500160437\SOURCE\REPOS\CLASSESDEMO\VLZ.CLASSESDEMO\DEBUG\VC141.PDB
^C:\USERS\500160437\SOURCE\REPOS\CLASSESDEMO\VLZ.CLASSESDEMO\MAIN.CPP
C:\USERS\500160437\SOURCE\REPOS\CLASSESDEMO\VLZ.CLASSESDEMO\DEBUG\VC141.PDB
