^C:\USERS\500160437\SOURCE\REPOS\ASSIGNMENT-3-POINTERS\ASSIGNMENT 3 - POINTERS\ASSIGNMENT 3 - POINTERS\X64\DEBUG\MAIN.OBJ
C:\USERS\500160437\SOURCE\REPOS\ASSIGNMENT-3-POINTERS\ASSIGNMENT 3 - POINTERS\X64\DEBUG\ASSIGNMENT 3 - POINTERS.EXE
C:\USERS\500160437\SOURCE\REPOS\ASSIGNMENT-3-POINTERS\ASSIGNMENT 3 - POINTERS\X64\DEBUG\ASSIGNMENT 3 - POINTERS.ILK
C:\USERS\500160437\SOURCE\REPOS\ASSIGNMENT-3-POINTERS\ASSIGNMENT 3 - POINTERS\X64\DEBUG\ASSIGNMENT 3 - POINTERS.PDB
